[gd_resource type="StandardMaterial3D" format=2]

[resource]
flags_transparent = true
flags_unshaded = true
flags_do_not_receive_shadows = true
vertex_color_use_as_albedo = true
albedo_color = Color( 0.501961, 0.0470588, 0.0470588, 1 )
